[0mCompiling "resources/public/js/compiled/anathema.js" from ["src"]...[0m
[32mSuccessfully compiled "resources/public/js/compiled/anathema.js" in 0.921 seconds.[0m
notifying browser that file changed:  resources/public/js/compiled/out/goog/deps.js
notifying browser that file changed:  resources/public/js/compiled/out/cljs_deps.js
notifying browser that file changed:  resources/public/js/compiled/out/anathema/core.js
[0mCompiling "resources/public/js/compiled/anathema.js" from ["src"]...[0m
[32mSuccessfully compiled "resources/public/js/compiled/anathema.js" in 2.536 seconds.[0m
notifying browser that file changed:  resources/public/js/compiled/out/cljs_deps.js
notifying browser that file changed:  resources/public/js/compiled/out/anathema/components.js
[0mCompiling "resources/public/js/compiled/anathema.js" from ["src"]...[0m
[32mSuccessfully compiled "resources/public/js/compiled/anathema.js" in 2.832 seconds.[0m
notifying browser that file changed:  resources/public/js/compiled/out/anathema/components.js
[0mCompiling "resources/public/js/compiled/anathema.js" from ["src"]...[0m
[32mSuccessfully compiled "resources/public/js/compiled/anathema.js" in 1.049 seconds.[0m
notifying browser that file changed:  resources/public/js/compiled/out/anathema/components.js
[0mCompiling "resources/public/js/compiled/anathema.js" from ["src"]...[0m
[32mSuccessfully compiled "resources/public/js/compiled/anathema.js" in 2.532 seconds.[0m
notifying browser that file changed:  resources/public/js/compiled/out/anathema/components.js
[0mCompiling "resources/public/js/compiled/anathema.js" from ["src"]...[0m
[32mSuccessfully compiled "resources/public/js/compiled/anathema.js" in 1.884 seconds.[0m
notifying browser that file changed:  resources/public/js/compiled/out/anathema/components.js
[0mCompiling "resources/public/js/compiled/anathema.js" from ["src"]...[0m
[32mSuccessfully compiled "resources/public/js/compiled/anathema.js" in 1.417 seconds.[0m
notifying browser that file changed:  resources/public/js/compiled/out/cljs_deps.js
notifying browser that file changed:  resources/public/js/compiled/out/anathema/core.js
[0mCompiling "resources/public/js/compiled/anathema.js" from ["src"]...[0m
[32mSuccessfully compiled "resources/public/js/compiled/anathema.js" in 2.172 seconds.[0m
notifying browser that file changed:  resources/public/js/compiled/out/anathema/core.js
[0mCompiling "resources/public/js/compiled/anathema.js" from ["src"]...[0m
[32mSuccessfully compiled "resources/public/js/compiled/anathema.js" in 1.445 seconds.[0m
notifying browser that file changed:  resources/public/js/compiled/out/anathema/core.js
[0mCompiling "resources/public/js/compiled/anathema.js" from ["src"]...[0m
[32mSuccessfully compiled "resources/public/js/compiled/anathema.js" in 0.812 seconds.[0m
notifying browser that file changed:  resources/public/js/compiled/out/anathema/components.js
[0mCompiling "resources/public/js/compiled/anathema.js" from ["src"]...[0m
[32mSuccessfully compiled "resources/public/js/compiled/anathema.js" in 0.917 seconds.[0m
notifying browser that file changed:  resources/public/js/compiled/out/anathema/components.js
[0mCompiling "resources/public/js/compiled/anathema.js" from ["src"]...[0m
[32mSuccessfully compiled "resources/public/js/compiled/anathema.js" in 1.152 seconds.[0m
notifying browser that file changed:  resources/public/js/compiled/out/cljs_deps.js
notifying browser that file changed:  resources/public/js/compiled/out/anathema/styles.js
[0mCompiling "resources/public/js/compiled/anathema.js" from ["src"]...[0m
[32mSuccessfully compiled "resources/public/js/compiled/anathema.js" in 0.782 seconds.[0m
notifying browser that file changed:  resources/public/js/compiled/out/anathema/styles.js
[0mCompiling "resources/public/js/compiled/anathema.js" from ["src"]...[0m
[32mSuccessfully compiled "resources/public/js/compiled/anathema.js" in 1.972 seconds.[0m
notifying browser that file changed:  resources/public/js/compiled/out/anathema/core.js
[0mCompiling "resources/public/js/compiled/anathema.js" from ["src"]...[0m
[31mFailed to compile "resources/public/js/compiled/anathema.js" in 0.504 seconds.[0m
[36m----  Could not Analyze  src/anathema/styles.cljs  ----[0m

  [1mNo such namespace: garden, could not locate garden.cljs, garden.cljc, or JavaScript source providing "garden" [0m

[36m----  Analysis Error : Please see src/anathema/styles.cljs  ----[0m
[0mCompiling "resources/public/js/compiled/anathema.js" from ["src"]...[0m
[31mFailed to compile "resources/public/js/compiled/anathema.js" in 0.525 seconds.[0m
[36m----  Could not Analyze  src/anathema/styles.cljs  ----[0m

  [1mNo such namespace: garden.core, could not locate garden/core.cljs, garden/core.cljc, or JavaScript source providing "garden.core" [0m

[36m----  Analysis Error : Please see src/anathema/styles.cljs  ----[0m
[0mCompiling "resources/public/js/compiled/anathema.js" from ["src"]...[0m
[31mFailed to compile "resources/public/js/compiled/anathema.js" in 0.373 seconds.[0m
[36m----  Could not Analyze  src/anathema/styles.cljs  ----[0m

  [1mNo such namespace: garden.core, could not locate garden/core.cljs, garden/core.cljc, or JavaScript source providing "garden.core" [0m

[36m----  Analysis Error : Please see src/anathema/styles.cljs  ----[0m
[0mCompiling "resources/public/js/compiled/anathema.js" from ["src"]...[0m
[31mFailed to compile "resources/public/js/compiled/anathema.js" in 0.241 seconds.[0m
[36m----  Could not Analyze  src/anathema/styles.cljs  ----[0m

  [1mNo such namespace: garden.core, could not locate garden/core.cljs, garden/core.cljc, or JavaScript source providing "garden.core" [0m

[36m----  Analysis Error : Please see src/anathema/styles.cljs  ----[0m
Notifying browser that CSS file changed: resources/public/css/index.css
Notifying browser that CSS file changed: resources/public/css/index.css
Notifying browser that CSS file changed: resources/public/css/bootstrap.css
[0mCompiling "resources/public/js/compiled/anathema.js" from ["src"]...[0m
[31mFailed to compile "resources/public/js/compiled/anathema.js" in 0.36 seconds.[0m
[36m----  Could not Analyze  src/anathema/styles.cljs  ----[0m

  [1mNo such namespace: garden.core, could not locate garden/core.cljs, garden/core.cljc, or JavaScript source providing "garden.core" [0m

[36m----  Analysis Error : Please see src/anathema/styles.cljs  ----[0m
[0mCompiling "resources/public/js/compiled/anathema.js" from ["src"]...[0m
[32mSuccessfully compiled "resources/public/js/compiled/anathema.js" in 1.059 seconds.[0m
notifying browser that file changed:  resources/public/js/compiled/out/goog/deps.js
notifying browser that file changed:  resources/public/js/compiled/out/cljs_deps.js
notifying browser that file changed:  resources/public/js/compiled/out/anathema/character_elements.js
[0mCompiling "resources/public/js/compiled/anathema.js" from ["src"]...[0m
[31mFailed to compile "resources/public/js/compiled/anathema.js" in 0.283 seconds.[0m
[36m----  Could not Read  src/anathema/character_elements.cljs   line:7 ----[0m

  [1m/Users/alex/Dropbox/Development/Exalted/anathema/src/anathema/character_elements.cljs [line 7, col 5] Invalid keyword: :.[0m

  [36m5[0m  [36m:dexterity[0m
  [36m6[0m  [36m:stamina[0m
  [33m7[0m  [1m:])[0m
  [0m [0m  [33m/Users/alex/Dropbox/Development/Exalted/anathema/src/anathema/character_elements.cljs [line 7, col 5] Invalid keyword: :.[0m

[36m----  Reader Error : Please see src/anathema/character_elements.cljs  ----[0m
[0mCompiling "resources/public/js/compiled/anathema.js" from ["src"]...[0m
[31mFailed to compile "resources/public/js/compiled/anathema.js" in 0.419 seconds.[0m
[36m----  Could not Read  src/anathema/character_elements.cljs   line:10 ----[0m

  [1m/Users/alex/Dropbox/Development/Exalted/anathema/src/anathema/character_elements.cljs [line 10, col 5] Invalid keyword: :.[0m

  [36m 8[0m  [36m:manipulation[0m
  [36m 9[0m  [36m:appearance[0m
  [33m10[0m  [1m:])[0m
  [0m  [0m  [33m/Users/alex/Dropbox/Development/Exalted/anathema/src/anathema/character_elements.cljs [line 10, col 5] Invalid keyword: :.[0m

[36m----  Reader Error : Please see src/anathema/character_elements.cljs  ----[0m
[0mCompiling "resources/public/js/compiled/anathema.js" from ["src"]...[0m
[32mSuccessfully compiled "resources/public/js/compiled/anathema.js" in 1.803 seconds.[0m
notifying browser that file changed:  resources/public/js/compiled/out/anathema/character_elements.js
[0mCompiling "resources/public/js/compiled/anathema.js" from ["src"]...[0m
[31mFailed to compile "resources/public/js/compiled/anathema.js" in 1.687 seconds.[0m
[36m----  Could not Analyze  src/anathema/components.cljs   line:23  column:3  ----[0m

  [1mWrong number of args (0) passed to: core/for[0m

  [36m22[0m  [36m(defn attribute-area [attribute-list][0m
  [33m23[0m  [1m  (for ))[0m
  [0m  [0m  [33m  ^--- Wrong number of args (0) passed to: core/for[0m
  [36m24[0m  [36m[0m
  [36m25[0m  [36m(defn app-area [][0m
  [36m26[0m  [36m  [:div {:class "app-area"}[0m

[36m----  Analysis Error : Please see src/anathema/components.cljs  ----[0m
[0mCompiling "resources/public/js/compiled/anathema.js" from ["src"]...[0m
[32mSuccessfully compiled "resources/public/js/compiled/anathema.js" in 1.7 seconds.[0m
notifying browser that file changed:  resources/public/js/compiled/out/cljs_deps.js
notifying browser that file changed:  resources/public/js/compiled/out/anathema/components.js
[0mCompiling "resources/public/js/compiled/anathema.js" from ["src"]...[0m
[32mSuccessfully compiled "resources/public/js/compiled/anathema.js" in 2.243 seconds.[0m
notifying browser that file changed:  resources/public/js/compiled/out/anathema/components.js
[0mCompiling "resources/public/js/compiled/anathema.js" from ["src"]...[0m
[32mSuccessfully compiled "resources/public/js/compiled/anathema.js" in 1.513 seconds.[0m
notifying browser that file changed:  resources/public/js/compiled/out/anathema/components.js
[0mCompiling "resources/public/js/compiled/anathema.js" from ["src"]...[0m
[32mSuccessfully compiled "resources/public/js/compiled/anathema.js" in 2.819 seconds.[0m
notifying browser that file changed:  resources/public/js/compiled/out/cljs_deps.js
notifying browser that file changed:  resources/public/js/compiled/out/anathema/components.js
[0mCompiling "resources/public/js/compiled/anathema.js" from ["src"]...[0m
[32mSuccessfully compiled "resources/public/js/compiled/anathema.js" in 2.299 seconds.[0m
notifying browser that file changed:  resources/public/js/compiled/out/anathema/character_elements.js
[0mCompiling "resources/public/js/compiled/anathema.js" from ["src"]...[0m
[32mSuccessfully compiled "resources/public/js/compiled/anathema.js" in 0.945 seconds.[0m
notifying browser that file changed:  resources/public/js/compiled/out/anathema/character_elements.js
[0mCompiling "resources/public/js/compiled/anathema.js" from ["src"]...[0m
[32mSuccessfully compiled "resources/public/js/compiled/anathema.js" in 1.591 seconds.[0m
notifying browser that file changed:  resources/public/js/compiled/out/anathema/components.js
[0mCompiling "resources/public/js/compiled/anathema.js" from ["src"]...[0m
[32mSuccessfully compiled "resources/public/js/compiled/anathema.js" in 1.179 seconds.[0m
notifying browser that file changed:  resources/public/js/compiled/out/anathema/core.js
[0mCompiling "resources/public/js/compiled/anathema.js" from ["src"]...[0m
[32mSuccessfully compiled "resources/public/js/compiled/anathema.js" in 1.377 seconds.[0m
notifying browser that file changed:  resources/public/js/compiled/out/anathema/core.js
[0mCompiling "resources/public/js/compiled/anathema.js" from ["src"]...[0m
[32mSuccessfully compiled "resources/public/js/compiled/anathema.js" in 1.506 seconds.[0m
notifying browser that file changed:  resources/public/js/compiled/out/anathema/core.js
[0mCompiling "resources/public/js/compiled/anathema.js" from ["src"]...[0m
[32mSuccessfully compiled "resources/public/js/compiled/anathema.js" in 0.718 seconds.[0m
notifying browser that file changed:  resources/public/js/compiled/out/anathema/core.js
[0mCompiling "resources/public/js/compiled/anathema.js" from ["src"]...[0m
[36m----  Compiler Warning on   src/anathema/components.cljs   line:8  column:34  ----[0m

  [1mWrong number of args (2) passed to cljs.core/vec[0m

  [36m 5[0m  [36m(defn content-listing [state-a][0m
  [36m 6[0m  [36m  (let [character-name-list (map #(:name %) (:characters state-a))[0m
  [36m 7[0m  [36m        character-ul (into [:ul#character-list.content-list][0m
  [33m 8[0m  [1m                           (map #(vec :li %)))][0m
  [0m  [0m  [33m                                 ^--- Wrong number of args (2) passed to cljs.core/vec[0m
  [36m 9[0m  [36m    character-ul))[0m
  [36m10[0m  [36m[0m
  [36m11[0m  [36m(defn side-bar [state-a][0m
  [36m12[0m  [36m  [:div.side-bar.container[0m
  [36m13[0m  [36m     [:ul.file-buttons[0m

[36m----  Compiler Warning : Please see src/anathema/components.cljs  ----[0m
[31mFailed to compile "resources/public/js/compiled/anathema.js" in 0.685 seconds.[0m
[36m----  Could not Read  src/anathema/components.cljs   line:25 ----[0m

  [1m/Users/alex/Dropbox/Development/Exalted/anathema/src/anathema/components.cljs [line 25, col 35] Unmatched delimiter ].[0m

  [36m23[0m  [36m     [:ul {:class "content-list", :id "chron-list"}[0m
  [36m24[0m  [36m      [:li "Under Heaven's Eye"][0m
  [33m25[0m  [1m      [:li "The Giver's Choice"]]])[0m
  [0m  [0m  [33m      /Users/alex/Dropbox/Development/Exalted/anathema/src/anathema/components.cljs [line 25, col 35] Unmatched delimiter ].[0m
  [36m26[0m  [36m[0m
  [36m27[0m  [36m(defn attribute-widget [attribute-thing][0m
  [36m28[0m  [36m  (let [attr-name (name attribute-thing)[0m

[36m----  Reader Error : Please see src/anathema/components.cljs  ----[0m
[0mCompiling "resources/public/js/compiled/anathema.js" from ["src"]...[0m
[36m----  Compiler Warning on   src/anathema/components.cljs   line:8  column:34  ----[0m

  [1mWrong number of args (2) passed to cljs.core/vec[0m

  [36m 5[0m  [36m(defn content-listing [state-a][0m
  [36m 6[0m  [36m  (let [character-name-list (map #(:name %) (:characters state-a))[0m
  [36m 7[0m  [36m        character-ul (into [:ul#character-list.content-list][0m
  [33m 8[0m  [1m                           (map #(vec :li %)))][0m
  [0m  [0m  [33m                                 ^--- Wrong number of args (2) passed to cljs.core/vec[0m
  [36m 9[0m  [36m    character-ul))[0m
  [36m10[0m  [36m[0m
  [36m11[0m  [36m(defn side-bar [state-a][0m
  [36m12[0m  [36m  [:div.side-bar.container[0m
  [36m13[0m  [36m     [:ul.file-buttons[0m

[36m----  Compiler Warning : Please see src/anathema/components.cljs  ----[0m
[31mFailed to compile "resources/public/js/compiled/anathema.js" in 0.34 seconds.[0m
[36m----  Could not Read  src/anathema/components.cljs   line:25 ----[0m

  [1m/Users/alex/Dropbox/Development/Exalted/anathema/src/anathema/components.cljs [line 25, col 35] Unmatched delimiter ].[0m

  [36m23[0m  [36m     [:ul {:class "content-list", :id "chron-list"}[0m
  [36m24[0m  [36m      [:li "Under Heaven's Eye"][0m
  [33m25[0m  [1m      [:li "The Giver's Choice"]]])[0m
  [0m  [0m  [33m      /Users/alex/Dropbox/Development/Exalted/anathema/src/anathema/components.cljs [line 25, col 35] Unmatched delimiter ].[0m
  [36m26[0m  [36m[0m
  [36m27[0m  [36m(defn attribute-widget [attribute-thing][0m
  [36m28[0m  [36m  (let [attr-name (name attribute-thing)[0m

[36m----  Reader Error : Please see src/anathema/components.cljs  ----[0m
[0mCompiling "resources/public/js/compiled/anathema.js" from ["src"]...[0m
[36m----  Compiler Warning on   src/anathema/components.cljs   line:8  column:34  ----[0m

  [1mWrong number of args (2) passed to cljs.core/vec[0m

  [36m 5[0m  [36m(defn content-listing [state-a][0m
  [36m 6[0m  [36m  (let [character-name-list (map #(:name %) (:characters state-a))[0m
  [36m 7[0m  [36m        character-ul (into [:ul#character-list.content-list][0m
  [33m 8[0m  [1m                           (map #(vec :li %)))][0m
  [0m  [0m  [33m                                 ^--- Wrong number of args (2) passed to cljs.core/vec[0m
  [36m 9[0m  [36m    character-ul))[0m
  [36m10[0m  [36m[0m
  [36m11[0m  [36m(defn side-bar [state-a][0m
  [36m12[0m  [36m  [:div.side-bar.container[0m
  [36m13[0m  [36m     [:ul.file-buttons[0m

[36m----  Compiler Warning : Please see src/anathema/components.cljs  ----[0m
[32mSuccessfully compiled "resources/public/js/compiled/anathema.js" in 1.666 seconds.[0m
notifying browser that file changed:  resources/public/js/compiled/out/anathema/components.js
[0mCompiling "resources/public/js/compiled/anathema.js" from ["src"]...[0m
[32mSuccessfully compiled "resources/public/js/compiled/anathema.js" in 1.262 seconds.[0m
notifying browser that file changed:  resources/public/js/compiled/out/anathema/components.js
[0mCompiling "resources/public/js/compiled/anathema.js" from ["src"]...[0m
[32mSuccessfully compiled "resources/public/js/compiled/anathema.js" in 1.467 seconds.[0m
notifying browser that file changed:  resources/public/js/compiled/out/anathema/components.js
[0mCompiling "resources/public/js/compiled/anathema.js" from ["src"]...[0m
[32mSuccessfully compiled "resources/public/js/compiled/anathema.js" in 1.097 seconds.[0m
notifying browser that file changed:  resources/public/js/compiled/out/anathema/components.js
[0mCompiling "resources/public/js/compiled/anathema.js" from ["src"]...[0m
[32mSuccessfully compiled "resources/public/js/compiled/anathema.js" in 1.494 seconds.[0m
notifying browser that file changed:  resources/public/js/compiled/out/anathema/components.js
[0mCompiling "resources/public/js/compiled/anathema.js" from ["src"]...[0m
[32mSuccessfully compiled "resources/public/js/compiled/anathema.js" in 2.145 seconds.[0m
notifying browser that file changed:  resources/public/js/compiled/out/goog/deps.js
notifying browser that file changed:  resources/public/js/compiled/out/cljs_deps.js
notifying browser that file changed:  resources/public/js/compiled/out/anathema/components.js
[0mCompiling "resources/public/js/compiled/anathema.js" from ["src"]...[0m
[32mSuccessfully compiled "resources/public/js/compiled/anathema.js" in 1.814 seconds.[0m
notifying browser that file changed:  resources/public/js/compiled/out/anathema/components.js
[0mCompiling "resources/public/js/compiled/anathema.js" from ["src"]...[0m
[32mSuccessfully compiled "resources/public/js/compiled/anathema.js" in 1.738 seconds.[0m
notifying browser that file changed:  resources/public/js/compiled/out/anathema/components.js
[0mCompiling "resources/public/js/compiled/anathema.js" from ["src"]...[0m
[32mSuccessfully compiled "resources/public/js/compiled/anathema.js" in 1.732 seconds.[0m
notifying browser that file changed:  resources/public/js/compiled/out/anathema/components.js
[0mCompiling "resources/public/js/compiled/anathema.js" from ["src"]...[0m
[32mSuccessfully compiled "resources/public/js/compiled/anathema.js" in 1.86 seconds.[0m
notifying browser that file changed:  resources/public/js/compiled/out/anathema/components.js
[0mCompiling "resources/public/js/compiled/anathema.js" from ["src"]...[0m
[32mSuccessfully compiled "resources/public/js/compiled/anathema.js" in 1.592 seconds.[0m
notifying browser that file changed:  resources/public/js/compiled/out/anathema/components.js
[0mCompiling "resources/public/js/compiled/anathema.js" from ["src"]...[0m
[32mSuccessfully compiled "resources/public/js/compiled/anathema.js" in 1.736 seconds.[0m
notifying browser that file changed:  resources/public/js/compiled/out/anathema/components.js
[0mCompiling "resources/public/js/compiled/anathema.js" from ["src"]...[0m
[32mSuccessfully compiled "resources/public/js/compiled/anathema.js" in 1.348 seconds.[0m
notifying browser that file changed:  resources/public/js/compiled/out/anathema/components.js
[0mCompiling "resources/public/js/compiled/anathema.js" from ["src"]...[0m
[32mSuccessfully compiled "resources/public/js/compiled/anathema.js" in 1.226 seconds.[0m
notifying browser that file changed:  resources/public/js/compiled/out/anathema/components.js
[0mCompiling "resources/public/js/compiled/anathema.js" from ["src"]...[0m
[32mSuccessfully compiled "resources/public/js/compiled/anathema.js" in 1.683 seconds.[0m
notifying browser that file changed:  resources/public/js/compiled/out/anathema/components.js
[0mCompiling "resources/public/js/compiled/anathema.js" from ["src"]...[0m
[32mSuccessfully compiled "resources/public/js/compiled/anathema.js" in 1.289 seconds.[0m
notifying browser that file changed:  resources/public/js/compiled/out/anathema/components.js
[0mCompiling "resources/public/js/compiled/anathema.js" from ["src"]...[0m
[32mSuccessfully compiled "resources/public/js/compiled/anathema.js" in 1.838 seconds.[0m
notifying browser that file changed:  resources/public/js/compiled/out/cljs_deps.js
notifying browser that file changed:  resources/public/js/compiled/out/anathema/util.js
[0mCompiling "resources/public/js/compiled/anathema.js" from ["src"]...[0m
[32mSuccessfully compiled "resources/public/js/compiled/anathema.js" in 2.207 seconds.[0m
notifying browser that file changed:  resources/public/js/compiled/out/anathema/util.js
[0mCompiling "resources/public/js/compiled/anathema.js" from ["src"]...[0m
[32mSuccessfully compiled "resources/public/js/compiled/anathema.js" in 1.186 seconds.[0m
notifying browser that file changed:  resources/public/js/compiled/out/cljs_deps.js
notifying browser that file changed:  resources/public/js/compiled/out/anathema/components.js
[0mCompiling "resources/public/js/compiled/anathema.js" from ["src"]...[0m
[32mSuccessfully compiled "resources/public/js/compiled/anathema.js" in 1.996 seconds.[0m
notifying browser that file changed:  resources/public/js/compiled/out/anathema/components.js
[0mCompiling "resources/public/js/compiled/anathema.js" from ["src"]...[0m
[31mFailed to compile "resources/public/js/compiled/anathema.js" in 0.522 seconds.[0m
[36m----  Could not Read  src/anathema/components.cljs   line:9 ----[0m

  [1m/Users/alex/Dropbox/Development/Exalted/anathema/src/anathema/components.cljs [line 9, col 74] Unmatched delimiter ).[0m

  [36m 7[0m  [36m(let [character-name-list (map #(:name %) (typeo @state-a))[0m
  [36m 8[0m  [36m      new-name (-> typeo name str/reverse (str/replace-first "s" "") str/reverse (str "-list.content-list"))[0m
  [33m 9[0m  [1m      new-keyword (keyword (str ":ul#" new-name "-list.content-list")))[0m
  [0m  [0m  [33m      /Users/alex/Dropbox/Development/Exalted/anathema/src/anathema/components.cljs [line 9, col 74] Unmatched delimiter ).[0m
  [36m10[0m  [36m      character-ul (into [new-name][0m
  [36m11[0m  [36m                         (map #(into [:li] [%] ) character-name-list))][0m
  [36m12[0m  [36m  character-ul))[0m

[36m----  Reader Error : Please see src/anathema/components.cljs  ----[0m
[0mCompiling "resources/public/js/compiled/anathema.js" from ["src"]...[0m
[32mSuccessfully compiled "resources/public/js/compiled/anathema.js" in 1.113 seconds.[0m
notifying browser that file changed:  resources/public/js/compiled/out/anathema/components.js
[0mCompiling "resources/public/js/compiled/anathema.js" from ["src"]...[0m
[32mSuccessfully compiled "resources/public/js/compiled/anathema.js" in 1.581 seconds.[0m
notifying browser that file changed:  resources/public/js/compiled/out/anathema/components.js
[0mCompiling "resources/public/js/compiled/anathema.js" from ["src"]...[0m
[32mSuccessfully compiled "resources/public/js/compiled/anathema.js" in 1.384 seconds.[0m
notifying browser that file changed:  resources/public/js/compiled/out/anathema/components.js
[0mCompiling "resources/public/js/compiled/anathema.js" from ["src"]...[0m
[32mSuccessfully compiled "resources/public/js/compiled/anathema.js" in 1.686 seconds.[0m
notifying browser that file changed:  resources/public/js/compiled/out/anathema/components.js
[0mCompiling "resources/public/js/compiled/anathema.js" from ["src"]...[0m
[32mSuccessfully compiled "resources/public/js/compiled/anathema.js" in 1.467 seconds.[0m
notifying browser that file changed:  resources/public/js/compiled/out/anathema/components.js
[0mCompiling "resources/public/js/compiled/anathema.js" from ["src"]...[0m
[32mSuccessfully compiled "resources/public/js/compiled/anathema.js" in 0.698 seconds.[0m
notifying browser that file changed:  resources/public/js/compiled/out/anathema/components.js
[0mCompiling "resources/public/js/compiled/anathema.js" from ["src"]...[0m
[31mFailed to compile "resources/public/js/compiled/anathema.js" in 0.323 seconds.[0m
[36m----  Could not Read  src/anathema/core.cljs   line:15 ----[0m

  [1m/Users/alex/Dropbox/Development/Exalted/anathema/src/anathema/core.cljs [line 15, col 38] Invalid keyword: :.[0m

  [36m13[0m  [36m              :caste :twilight[0m
  [36m14[0m  [36m              :player "Gavyn"[0m
  [33m15[0m  [1m              :}[0m
  [0m  [0m  [33m              /Users/alex/Dropbox/Development/Exalted/anathema/src/anathema/core.cljs [line 15, col 38] Invalid keyword: :.[0m
  [36m16[0m  [36m             {:name "Liger"}[0m
  [36m17[0m  [36m             {:name "Volfer"}][0m
  [36m18[0m  [36m:chrons [{:name "Under Heaven's Eye"}[0m

[36m----  Reader Error : Please see src/anathema/core.cljs  ----[0m
[0mCompiling "resources/public/js/compiled/anathema.js" from ["src"]...[0m
[32mSuccessfully compiled "resources/public/js/compiled/anathema.js" in 1.27 seconds.[0m
notifying browser that file changed:  resources/public/js/compiled/out/anathema/core.js
notifying browser that file changed:  resources/public/js/compiled/out/anathema/components.js
[0mCompiling "resources/public/js/compiled/anathema.js" from ["src"]...[0m
[32mSuccessfully compiled "resources/public/js/compiled/anathema.js" in 1.158 seconds.[0m
notifying browser that file changed:  resources/public/js/compiled/out/anathema/components.js
[0mCompiling "resources/public/js/compiled/anathema.js" from ["src"]...[0m
[32mSuccessfully compiled "resources/public/js/compiled/anathema.js" in 1.412 seconds.[0m
notifying browser that file changed:  resources/public/js/compiled/out/anathema/components.js
[0mCompiling "resources/public/js/compiled/anathema.js" from ["src"]...[0m
[32mSuccessfully compiled "resources/public/js/compiled/anathema.js" in 1.469 seconds.[0m
notifying browser that file changed:  resources/public/js/compiled/out/anathema/components.js
[0mCompiling "resources/public/js/compiled/anathema.js" from ["src"]...[0m
[32mSuccessfully compiled "resources/public/js/compiled/anathema.js" in 1.08 seconds.[0m
notifying browser that file changed:  resources/public/js/compiled/out/anathema/components.js
[0mCompiling "resources/public/js/compiled/anathema.js" from ["src"]...[0m
[32mSuccessfully compiled "resources/public/js/compiled/anathema.js" in 1.388 seconds.[0m
notifying browser that file changed:  resources/public/js/compiled/out/anathema/components.js
[0mCompiling "resources/public/js/compiled/anathema.js" from ["src"]...[0m
[32mSuccessfully compiled "resources/public/js/compiled/anathema.js" in 1.043 seconds.[0m
notifying browser that file changed:  resources/public/js/compiled/out/anathema/components.js
Notifying browser that CSS file changed: resources/public/css/index.css
Notifying browser that CSS file changed: resources/public/css/index.css
Notifying browser that CSS file changed: resources/public/css/index.css
[0mCompiling "resources/public/js/compiled/anathema.js" from ["src"]...[0m
[32mSuccessfully compiled "resources/public/js/compiled/anathema.js" in 4.172 seconds.[0m
notifying browser that file changed:  resources/public/js/compiled/out/goog/deps.js
notifying browser that file changed:  resources/public/js/compiled/out/cljs_deps.js
notifying browser that file changed:  resources/public/js/compiled/out/anathema/styles.js
[0mCompiling "resources/public/js/compiled/anathema.js" from ["src"]...[0m
[32mSuccessfully compiled "resources/public/js/compiled/anathema.js" in 1.988 seconds.[0m
notifying browser that file changed:  resources/public/js/compiled/out/anathema/core.js
[0mCompiling "resources/public/js/compiled/anathema.js" from ["src"]...[0m
[32mSuccessfully compiled "resources/public/js/compiled/anathema.js" in 0.908 seconds.[0m
notifying browser that file changed:  resources/public/js/compiled/out/cljs_deps.js
notifying browser that file changed:  resources/public/js/compiled/out/anathema/core.js
[0mCompiling "resources/public/js/compiled/anathema.js" from ["src"]...[0m
[32mSuccessfully compiled "resources/public/js/compiled/anathema.js" in 2.184 seconds.[0m
notifying browser that file changed:  resources/public/js/compiled/out/anathema/core.js
[0mCompiling "resources/public/js/compiled/anathema.js" from ["src"]...[0m
[32mSuccessfully compiled "resources/public/js/compiled/anathema.js" in 1.701 seconds.[0m
notifying browser that file changed:  resources/public/js/compiled/out/anathema/core.js
[0mCompiling "resources/public/js/compiled/anathema.js" from ["src"]...[0m
[32mSuccessfully compiled "resources/public/js/compiled/anathema.js" in 2.495 seconds.[0m
notifying browser that file changed:  resources/public/js/compiled/out/anathema/styles.js
Notifying browser that CSS file changed: resources/public/css/index.css
[0mCompiling "resources/public/js/compiled/anathema.js" from ["src"]...[0m
[32mSuccessfully compiled "resources/public/js/compiled/anathema.js" in 0.863 seconds.[0m
notifying browser that file changed:  resources/public/js/compiled/out/anathema/styles.js
[0mCompiling "resources/public/js/compiled/anathema.js" from ["src"]...[0m
[32mSuccessfully compiled "resources/public/js/compiled/anathema.js" in 1.435 seconds.[0m
notifying browser that file changed:  resources/public/js/compiled/out/anathema/styles.js
[0mCompiling "resources/public/js/compiled/anathema.js" from ["src"]...[0m
[32mSuccessfully compiled "resources/public/js/compiled/anathema.js" in 0.885 seconds.[0m
notifying browser that file changed:  resources/public/js/compiled/out/anathema/styles.js
Notifying browser that CSS file changed: resources/public/css/index.css
[0mCompiling "resources/public/js/compiled/anathema.js" from ["src"]...[0m
[32mSuccessfully compiled "resources/public/js/compiled/anathema.js" in 1.155 seconds.[0m
notifying browser that file changed:  resources/public/js/compiled/out/anathema/styles.js
Notifying browser that CSS file changed: resources/public/css/index.css
[0mCompiling "resources/public/js/compiled/anathema.js" from ["src"]...[0m
[32mSuccessfully compiled "resources/public/js/compiled/anathema.js" in 1.259 seconds.[0m
notifying browser that file changed:  resources/public/js/compiled/out/anathema/styles.js
[0mCompiling "resources/public/js/compiled/anathema.js" from ["src"]...[0m
[32mSuccessfully compiled "resources/public/js/compiled/anathema.js" in 0.784 seconds.[0m
notifying browser that file changed:  resources/public/js/compiled/out/anathema/styles.js
[0mCompiling "resources/public/js/compiled/anathema.js" from ["src"]...[0m
[32mSuccessfully compiled "resources/public/js/compiled/anathema.js" in 0.966 seconds.[0m
notifying browser that file changed:  resources/public/js/compiled/out/anathema/styles.js
[0mCompiling "resources/public/js/compiled/anathema.js" from ["src"]...[0m
[32mSuccessfully compiled "resources/public/js/compiled/anathema.js" in 1.154 seconds.[0m
notifying browser that file changed:  resources/public/js/compiled/out/anathema/styles.js
Notifying browser that CSS file changed: resources/public/css/index.css
Notifying browser that CSS file changed: resources/public/css/index.css
Notifying browser that CSS file changed: resources/public/css/index.css
Notifying browser that CSS file changed: resources/public/css/index.css
[0mCompiling "resources/public/js/compiled/anathema.js" from ["src"]...[0m
[32mSuccessfully compiled "resources/public/js/compiled/anathema.js" in 0.788 seconds.[0m
notifying browser that file changed:  resources/public/js/compiled/out/anathema/styles.js
[0mCompiling "resources/public/js/compiled/anathema.js" from ["src"]...[0m
[32mSuccessfully compiled "resources/public/js/compiled/anathema.js" in 0.867 seconds.[0m
notifying browser that file changed:  resources/public/js/compiled/out/anathema/styles.js
Notifying browser that CSS file changed: resources/public/css/index.css
[0mCompiling "resources/public/js/compiled/anathema.js" from ["src"]...[0m
[32mSuccessfully compiled "resources/public/js/compiled/anathema.js" in 1.028 seconds.[0m
notifying browser that file changed:  resources/public/js/compiled/out/anathema/styles.js
[0mCompiling "resources/public/js/compiled/anathema.js" from ["src"]...[0m
[32mSuccessfully compiled "resources/public/js/compiled/anathema.js" in 0.921 seconds.[0m
notifying browser that file changed:  resources/public/js/compiled/out/anathema/styles.js
[0mCompiling "resources/public/js/compiled/anathema.js" from ["src"]...[0m
[36m----  Compiler Warning on   src/anathema/core.cljs   line:28  column:11  ----[0m

  [1mUse of undeclared Var anathema.core/slurp[0m

  [36m24[0m  [36m   [:style (style/page-style)][0m
  [36m25[0m  [36m   (side-bar app-state)[0m
  [36m26[0m  [36m   (app-area)])[0m
  [36m27[0m  [36m[0m
  [33m28[0m  [1m(println (slurp "volfer.edn"))[0m
  [0m  [0m  [33m          ^--- Use of undeclared Var anathema.core/slurp[0m
  [36m29[0m  [36m[0m
  [36m30[0m  [36m(reagent/render-component [app-render][0m
  [36m31[0m  [36m                          (. js/document (getElementById "app")))[0m
  [36m32[0m  [36m[0m
  [36m33[0m  [36m(defn on-js-reload [][0m

[36m----  Compiler Warning : Please see src/anathema/core.cljs  ----[0m
[32mSuccessfully compiled "resources/public/js/compiled/anathema.js" in 1.158 seconds.[0m
notifying browser that file changed:  resources/public/js/compiled/out/anathema/core.js
[0mCompiling "resources/public/js/compiled/anathema.js" from ["src"]...[0m
[32mSuccessfully compiled "resources/public/js/compiled/anathema.js" in 1.194 seconds.[0m
notifying browser that file changed:  resources/public/js/compiled/out/anathema/core.js
notifying browser that file changed:  resources/public/js/compiled/out/anathema/character_elements.js
